Exploration of SEC62 and HLA-E in DLBCL tumors
…
Import patient metadata from Supplementary Table S9

meta <- read_excel("/tcga-artemis/tcga_DLBCL_APRIL_2018/tcga_DLBCL_APRIL_2018_OPEN-ACCESS_FILES/529be438-e42c-4725-a3f3-66f6fd42ffae/Supplementary_Appendix_2.xlsx", sheet=9) %>%
    dplyr::filter(!is.na(Diagnosis))
meta

# A tibble: 574 × 20
   dbGaP submitted subject …¹ `dbGaP accession` Diagnosis Gene Expression Subg…²
   <chr>                      <chr>             <chr>     <chr>                 
 1 DLBCL11202                 phs001444         Diffuse … Unclass               
 2 DLBCL10484                 phs001444         Diffuse … GCB                   
 3 DLBCL10555                 phs001444         Diffuse … GCB                   
 4 DLBCL10942                 phs001444         Diffuse … Unclass               
 5 DLBCL10566                 phs001444         Diffuse … Unclass               
 6 DLBCL10549                 phs001444         Diffuse … GCB                   
 7 DLBCL11191                 phs001444         Diffuse … Unclass               
 8 DLBCL11541                 phs001444         Diffuse … GCB                   
 9 DLBCL11660                 phs001444         Diffuse … GCB                   
10 DLBCL11503                 phs001444         Diffuse … ABC                   
# ℹ 564 more rows
# ℹ abbreviated names: ¹​`dbGaP submitted subject ID`,
#   ²​`Gene Expression Subgroup`
# ℹ 16 more variables: `Genetic Subtype` <chr>, `Biopsy Type` <chr>,
#   Treatment__ <chr>, Gender <chr>, Age <dbl>, `Ann Arbor Stage` <dbl>,
#   `LDH Ratio` <dbl>, `ECOG Performance Status` <dbl>,
#   `Number of Extranodal Sites` <dbl>, `IPI Group` <chr>, `IPI Range` <dbl>, …

Gather expression and genetic subtype info

subtypes <- meta %>%
    dplyr::select(`dbGaP submitted subject ID`,
                  `Gene Expression Subgroup`, 
                  `Genetic Subtype`) %>%
    dplyr::rename("ID" = `dbGaP submitted subject ID`, 
                  "ExpressionSubtype" = `Gene Expression Subgroup`, 
                  "GeneticSubtype" = `Genetic Subtype`
)
subtypes

# A tibble: 574 × 3
   ID         ExpressionSubtype GeneticSubtype
   <chr>      <chr>             <chr>         
 1 DLBCL11202 Unclass           Other         
 2 DLBCL10484 GCB               Other         
 3 DLBCL10555 GCB               EZB           
 4 DLBCL10942 Unclass           BN2           
 5 DLBCL10566 Unclass           Other         
 6 DLBCL10549 GCB               Other         
 7 DLBCL11191 Unclass           BN2           
 8 DLBCL11541 GCB               Other         
 9 DLBCL11660 GCB               BN2           
10 DLBCL11503 ABC               N1            
# ℹ 564 more rows
…
Rows: 25066 Columns: 565
── Column specification ────────────────────────────────────────────────────────
Delimiter: "\t"
chr   (3): Gene, Accession, Gene_ID
dbl (562): CTSP-ACZT, CTSP-ACZU, CTSP-ACZW, CTSP-AD2E, CTSP-B02B, DLBCL10502...

ℹ Use `spec()` to retrieve the full column specification for this data.
ℹ Specify the column types or set `show_col_types = FALSE` to quiet this message.

expr

# A tibble: 14,087,092 × 3
   Gene  ID         Expression
   <chr> <chr>           <dbl>
 1 A1BG  CTSP-ACZT        8.33
 2 A1BG  CTSP-ACZU        7.15
 3 A1BG  CTSP-ACZW        8.94
 4 A1BG  CTSP-AD2E        8.64
 5 A1BG  CTSP-B02B        8.09
 6 A1BG  DLBCL10502       9.20
 7 A1BG  DLBCL10521       8.80
 8 A1BG  CTSP-ACY5        9.07
 9 A1BG  CTSP-ACY6        9.9 
10 A1BG  CTSP-ACY8        9.97
# ℹ 14,087,082 more rows
…
